<?xml version="1.0" encoding="utf-8"?>
<!-- Generator: Adobe Illustrator 16.0.0, SVG Export Plug-In . SVG Version: 6.00 Build 0)  -->
<!DOCTYPE svg PUBLIC "-//W3C//DTD SVG 1.1//EN" "http://www.w3.org/Graphics/SVG/1.1/DTD/svg11.dtd">
<svg version="1.1" id="Layer_1" xmlns="http://www.w3.org/2000/svg" xmlns:xlink="http://www.w3.org/1999/xlink" x="0px" y="0px"
	 width="30px" height="50px" viewBox="0 0 30 50" enable-background="new 0 0 30 50" xml:space="preserve">
<g id="Layer_1_1_">
	<path fill="#FFFFFF" d="M0,13.776v30h30v-30H0z M29,42.775H1v-28h28V42.775z"/>
</g>
<path fill="#FFFFFF" d="M20.165,34.561v-0.04l-8.525,0.02l-0.572-2.067h10.458l2.323-7.685H8.94l-1.259-4.546H4.15v1h2.771
	l3.71,13.401c-0.88,0.268-1.527,1.078-1.527,2.045c0,1.183,0.963,2.146,2.146,2.146s2.146-0.963,2.146-2.146
	c0-0.425-0.128-0.818-0.341-1.151l5.13-0.012c-0.218,0.336-0.348,0.733-0.348,1.163c0,1.183,0.963,2.146,2.146,2.146
	c1.183,0,2.146-0.963,2.146-2.146C22.129,35.567,21.262,34.654,20.165,34.561z M22.502,25.788l-1.718,5.685h-9.993l-1.574-5.685
	H22.502z M11.25,37.834c-0.632,0-1.146-0.514-1.146-1.146s0.514-1.146,1.146-1.146s1.146,0.515,1.146,1.146
	S11.881,37.834,11.25,37.834z M19.983,37.834c-0.632,0-1.146-0.514-1.146-1.146s0.515-1.146,1.146-1.146s1.146,0.515,1.146,1.146
	S20.615,37.834,19.983,37.834z"/>
</svg>
